subws_id,precip_mn,PET_mn,AET_mn,wyield_mn,wyield_vol
1,1837.68545918367,241.63756377551,240.77436224490,1596.91096938776,28400901.89945728000
2,1752.82159674658,287.83484053938,286.41168129281,1466.41010273973,7937091.32208202500
7,1806.77415865385,240.33055889423,240.33055889423,1566.44362980769,15754506.80680068800
8,1733.29585597826,290.68932574728,290.68932574728,1442.60699728261,11334563.17764405000
9,1637.33154296875,474.28670247396,474.28670247396,1163.04492187500,1122105.74062842740
3,1989.25546577947,263.69252019962,263.81756591797,1727.44946289063,33025033.34165470300
