subws_id,precip_mn,PET_mn,AET_mn,wyield_mn,wyield_vol,consum_vol,consum_mn,rsupply_vl,rsupply_mn
1,1837.68545918367,241.63756377551,240.77436224490,1596.91096938776,28400901.89945728000,4400.00000000000,17.95918367347,28396501.89945728000,1578.95178571429
2,1752.82159674658,287.83484053938,286.41168129281,1466.41010273973,7937091.32208202500,4900.00000000000,67.12328767123,7932191.32208202500,1399.28681506850
7,1806.77415865385,240.33055889423,240.33055889423,1566.44362980769,15754506.80680068800,900.00000000000,6.92307692308,15753606.80680068800,1559.52055288461
8,1733.29585597826,290.68932574728,290.68932574728,1442.60699728261,11334563.17764405000,2100.00000000000,45.65217391304,11332463.17764405000,1396.95482336957
9,1637.33154296875,474.28670247396,474.28670247396,1163.04492187500,1122105.74062842740,2400.00000000000,200.00000000000,1119705.74062842740,963.04492187500
3,1989.25546577947,263.69252019962,263.81756591797,1727.44946289063,33025033.34165470300,10400.00000000000,39.54372623574,33014633.34165470300,1687.90573665489
