Percentile Group,Percentile Range,"Value Range (megawatt hours per year, MWh/yr)",Pixel Count
1,<25%,1 to 1529.35,3.0
2,25-50%,1529.35 to 2082.69,1.0
3,50-75%,2082.69 to 2214.82,2.0
4,75-90%,2214.82 to 2214.82,0.0
5,>90%,Greater than 2214.82,0.0
